C:\Users\Geoff\sigil\examples\sprites\vc2010\Release\cl.command.1.tlog
C:\Users\Geoff\sigil\examples\sprites\vc2010\Release\CL.read.1.tlog
C:\Users\Geoff\sigil\examples\sprites\vc2010\Release\CL.write.1.tlog
C:\Users\Geoff\sigil\examples\sprites\vc2010\Release\sprites-vc2010.write.1.tlog
C:\Users\Geoff\sigil\examples\sprites\vc2010\Release\vc100.pdb
